[gd_resource type="TileSet" load_steps=3 format=2]

[ext_resource path="res://Assets/Tiles/Tiles.png" type="Texture" id=1]

[sub_resource type="RectangleShape2D" id=1]

custom_solver_bias = 0.0
extents = Vector2( 8, 8 )

[resource]

0/name = "GrassTuft1"
0/texture = ExtResource( 1 )
0/tex_offset = Vector2( 0, 0 )
0/modulate = Color( 1, 1, 1, 1 )
0/region = Rect2( 0, 0, 16, 16 )
0/is_autotile = false
0/occluder_offset = Vector2( 8, 8 )
0/navigation_offset = Vector2( 8, 8 )
0/shapes = [  ]
1/name = "GrassTuft2"
1/texture = ExtResource( 1 )
1/tex_offset = Vector2( 0, 0 )
1/modulate = Color( 1, 1, 1, 1 )
1/region = Rect2( 16, 0, 16, 16 )
1/is_autotile = false
1/occluder_offset = Vector2( 8, 8 )
1/navigation_offset = Vector2( 8, 8 )
1/shapes = [  ]
2/name = "GrassTuft3"
2/texture = ExtResource( 1 )
2/tex_offset = Vector2( 0, 0 )
2/modulate = Color( 1, 1, 1, 1 )
2/region = Rect2( 32, 0, 16, 16 )
2/is_autotile = false
2/occluder_offset = Vector2( 8, 8 )
2/navigation_offset = Vector2( 8, 8 )
2/shapes = [  ]
3/name = "GrassTuft4"
3/texture = ExtResource( 1 )
3/tex_offset = Vector2( 0, 0 )
3/modulate = Color( 1, 1, 1, 1 )
3/region = Rect2( 48, 0, 16, 16 )
3/is_autotile = false
3/occluder_offset = Vector2( 8, 8 )
3/navigation_offset = Vector2( 8, 8 )
3/shapes = [  ]
4/name = "DirtLeft"
4/texture = ExtResource( 1 )
4/tex_offset = Vector2( 0, 0 )
4/modulate = Color( 1, 1, 1, 1 )
4/region = Rect2( 64, 0, 16, 16 )
4/is_autotile = false
4/occluder_offset = Vector2( 8, 8 )
4/navigation_offset = Vector2( 8, 8 )
4/shapes = [ {
"autotile_coord": Vector2( 0, 0 ),
"one_way": false,
"shape": SubResource( 1 ),
"shape_transform": Transform2D( 1, 0, 0, 1, 8, 8 )
} ]
5/name = "DirtRight"
5/texture = ExtResource( 1 )
5/tex_offset = Vector2( 0, 0 )
5/modulate = Color( 1, 1, 1, 1 )
5/region = Rect2( 80, 0, 16, 16 )
5/is_autotile = false
5/occluder_offset = Vector2( 8, 8 )
5/navigation_offset = Vector2( 8, 8 )
5/shapes = [ {
"autotile_coord": Vector2( 0, 0 ),
"one_way": false,
"shape": SubResource( 1 ),
"shape_transform": Transform2D( 1, 0, 0, 1, 8, 8 )
} ]
6/name = "DirtMiddle"
6/texture = ExtResource( 1 )
6/tex_offset = Vector2( 0, 0 )
6/modulate = Color( 1, 1, 1, 1 )
6/region = Rect2( 96, 0, 16, 16 )
6/is_autotile = false
6/occluder_offset = Vector2( 8, 8 )
6/navigation_offset = Vector2( 8, 8 )
6/shapes = [ {
"autotile_coord": Vector2( 0, 0 ),
"one_way": false,
"shape": SubResource( 1 ),
"shape_transform": Transform2D( 1, 0, 0, 1, 8, 8 )
} ]
7/name = "GrassTopLeft"
7/texture = ExtResource( 1 )
7/tex_offset = Vector2( 0, 0 )
7/modulate = Color( 1, 1, 1, 1 )
7/region = Rect2( 0, 16, 16, 16 )
7/is_autotile = false
7/occluder_offset = Vector2( 8, 8 )
7/navigation_offset = Vector2( 8, 8 )
7/shapes = [ {
"autotile_coord": Vector2( 0, 0 ),
"one_way": false,
"shape": SubResource( 1 ),
"shape_transform": Transform2D( 1, 0, 0, 1, 8, 8 )
} ]
8/name = "GrassTopMiddle1"
8/texture = ExtResource( 1 )
8/tex_offset = Vector2( 0, 0 )
8/modulate = Color( 1, 1, 1, 1 )
8/region = Rect2( 16, 16, 16, 16 )
8/is_autotile = false
8/occluder_offset = Vector2( 8, 8 )
8/navigation_offset = Vector2( 8, 8 )
8/shapes = [ {
"autotile_coord": Vector2( 0, 0 ),
"one_way": false,
"shape": SubResource( 1 ),
"shape_transform": Transform2D( 1, 0, 0, 1, 8, 8 )
} ]
9/name = "GrassTopMiddle2"
9/texture = ExtResource( 1 )
9/tex_offset = Vector2( 0, 0 )
9/modulate = Color( 1, 1, 1, 1 )
9/region = Rect2( 32, 16, 16, 16 )
9/is_autotile = false
9/occluder_offset = Vector2( 8, 8 )
9/navigation_offset = Vector2( 8, 8 )
9/shapes = [ {
"autotile_coord": Vector2( 0, 0 ),
"one_way": false,
"shape": SubResource( 1 ),
"shape_transform": Transform2D( 1, 0, 0, 1, 8, 8 )
} ]
10/name = "GrassTopRight"
10/texture = ExtResource( 1 )
10/tex_offset = Vector2( 0, 0 )
10/modulate = Color( 1, 1, 1, 1 )
10/region = Rect2( 48, 16, 16, 16 )
10/is_autotile = false
10/occluder_offset = Vector2( 8, 8 )
10/navigation_offset = Vector2( 8, 8 )
10/shapes = [ {
"autotile_coord": Vector2( 0, 0 ),
"one_way": false,
"shape": SubResource( 1 ),
"shape_transform": Transform2D( 1, 0, 0, 1, 8, 8 )
} ]
11/name = "RockFiller1"
11/texture = ExtResource( 1 )
11/tex_offset = Vector2( 0, 0 )
11/modulate = Color( 1, 1, 1, 1 )
11/region = Rect2( 64, 16, 16, 16 )
11/is_autotile = false
11/occluder_offset = Vector2( 8, 8 )
11/navigation_offset = Vector2( 8, 8 )
11/shapes = [  ]
12/name = "RockFiller2"
12/texture = ExtResource( 1 )
12/tex_offset = Vector2( 0, 0 )
12/modulate = Color( 1, 1, 1, 1 )
12/region = Rect2( 80, 16, 16, 16 )
12/is_autotile = false
12/occluder_offset = Vector2( 8, 8 )
12/navigation_offset = Vector2( 8, 8 )
12/shapes = [  ]
13/name = "RockMiddleLeft"
13/texture = ExtResource( 1 )
13/tex_offset = Vector2( 0, 0 )
13/modulate = Color( 1, 1, 1, 1 )
13/region = Rect2( 0, 32, 16, 16 )
13/is_autotile = false
13/occluder_offset = Vector2( 8, 8 )
13/navigation_offset = Vector2( 8, 8 )
13/shapes = [  ]
14/name = "RockFiller3"
14/texture = ExtResource( 1 )
14/tex_offset = Vector2( 0, 0 )
14/modulate = Color( 1, 1, 1, 1 )
14/region = Rect2( 16, 32, 16, 16 )
14/is_autotile = false
14/occluder_offset = Vector2( 8, 8 )
14/navigation_offset = Vector2( 8, 8 )
14/shapes = [  ]
15/name = "RockFiller4"
15/texture = ExtResource( 1 )
15/tex_offset = Vector2( 0, 0 )
15/modulate = Color( 1, 1, 1, 1 )
15/region = Rect2( 32, 32, 16, 16 )
15/is_autotile = false
15/occluder_offset = Vector2( 8, 8 )
15/navigation_offset = Vector2( 8, 8 )
15/shapes = [  ]
16/name = "RockMiddleRight"
16/texture = ExtResource( 1 )
16/tex_offset = Vector2( 0, 0 )
16/modulate = Color( 1, 1, 1, 1 )
16/region = Rect2( 48, 32, 16, 16 )
16/is_autotile = false
16/occluder_offset = Vector2( 8, 8 )
16/navigation_offset = Vector2( 8, 8 )
16/shapes = [  ]
17/name = "GrassJunctionLeft"
17/texture = ExtResource( 1 )
17/tex_offset = Vector2( 0, 0 )
17/modulate = Color( 1, 1, 1, 1 )
17/region = Rect2( 64, 32, 16, 16 )
17/is_autotile = false
17/occluder_offset = Vector2( 8, 8 )
17/navigation_offset = Vector2( 8, 8 )
17/shapes = [  ]
18/name = "GrassJunctionRight"
18/texture = ExtResource( 1 )
18/tex_offset = Vector2( 0, 0 )
18/modulate = Color( 1, 1, 1, 1 )
18/region = Rect2( 80, 32, 16, 16 )
18/is_autotile = false
18/occluder_offset = Vector2( 8, 8 )
18/navigation_offset = Vector2( 8, 8 )
18/shapes = [  ]
19/name = "RockBottomLeft"
19/texture = ExtResource( 1 )
19/tex_offset = Vector2( 0, 0 )
19/modulate = Color( 1, 1, 1, 1 )
19/region = Rect2( 0, 48, 16, 16 )
19/is_autotile = false
19/occluder_offset = Vector2( 8, 8 )
19/navigation_offset = Vector2( 8, 8 )
19/shapes = [  ]
20/name = "RockBottomMiddle1"
20/texture = ExtResource( 1 )
20/tex_offset = Vector2( 0, 0 )
20/modulate = Color( 1, 1, 1, 1 )
20/region = Rect2( 16, 48, 16, 16 )
20/is_autotile = false
20/occluder_offset = Vector2( 8, 8 )
20/navigation_offset = Vector2( 8, 8 )
20/shapes = [  ]
21/name = "RockBottomMiddle2"
21/texture = ExtResource( 1 )
21/tex_offset = Vector2( 0, 0 )
21/modulate = Color( 1, 1, 1, 1 )
21/region = Rect2( 32, 48, 16, 16 )
21/is_autotile = false
21/occluder_offset = Vector2( 8, 8 )
21/navigation_offset = Vector2( 8, 8 )
21/shapes = [  ]
22/name = "RockBottomRight"
22/texture = ExtResource( 1 )
22/tex_offset = Vector2( 0, 0 )
22/modulate = Color( 1, 1, 1, 1 )
22/region = Rect2( 48, 48, 16, 16 )
22/is_autotile = false
22/occluder_offset = Vector2( 8, 8 )
22/navigation_offset = Vector2( 8, 8 )
22/shapes = [  ]
23/name = "RockSolid"
23/texture = ExtResource( 1 )
23/tex_offset = Vector2( 0, 0 )
23/modulate = Color( 1, 1, 1, 1 )
23/region = Rect2( 64, 48, 16, 16 )
23/is_autotile = false
23/occluder_offset = Vector2( 8, 8 )
23/navigation_offset = Vector2( 8, 8 )
23/shapes = [  ]
24/name = "SkySolid"
24/texture = ExtResource( 1 )
24/tex_offset = Vector2( 0, 0 )
24/modulate = Color( 1, 1, 1, 1 )
24/region = Rect2( 80, 48, 16, 16 )
24/is_autotile = false
24/occluder_offset = Vector2( 8, 8 )
24/navigation_offset = Vector2( 8, 8 )
24/shapes = [  ]
25/name = "RockJunctionLeft"
25/texture = ExtResource( 1 )
25/tex_offset = Vector2( 0, 0 )
25/modulate = Color( 1, 1, 1, 1 )
25/region = Rect2( 64, 64, 16, 16 )
25/is_autotile = false
25/occluder_offset = Vector2( 8, 8 )
25/navigation_offset = Vector2( 8, 8 )
25/shapes = [  ]
26/name = "RockJunctionRight"
26/texture = ExtResource( 1 )
26/tex_offset = Vector2( 0, 0 )
26/modulate = Color( 1, 1, 1, 1 )
26/region = Rect2( 80, 64, 16, 16 )
26/is_autotile = false
26/occluder_offset = Vector2( 8, 8 )
26/navigation_offset = Vector2( 8, 8 )
26/shapes = [  ]

