[gd_scene load_steps=8 format=2]

[ext_resource path="res://Entities/Enemies/Slime.gd" type="Script" id=1]

[sub_resource type="StreamTexture" id=1]

flags = 0
load_path = "res://.import/HugeSlime.png-06e7d2ac5f7d12dd15b20324f49de3c9.stex"

[sub_resource type="Animation" id=2]

resource_name = "Attack"
length = 0.6
loop = false
step = 0.12
tracks/0/type = "value"
tracks/0/path = NodePath("Sprite:frame")
tracks/0/interp = 1
tracks/0/loop_wrap = true
tracks/0/imported = false
tracks/0/enabled = true
tracks/0/keys = {
"times": PoolRealArray( 0, 0.12, 0.24, 0.36, 0.48 ),
"transitions": PoolRealArray( 1, 1, 1, 1, 1 ),
"update": 1,
"values": [ 8, 9, 10, 11, 12 ]
}
tracks/1/type = "method"
tracks/1/path = NodePath(".")
tracks/1/interp = 1
tracks/1/loop_wrap = true
tracks/1/imported = false
tracks/1/enabled = true
tracks/1/keys = {
"times": PoolRealArray( 0, 0.24, 0.48 ),
"transitions": PoolRealArray( 1, 1, 1 ),
"values": [ {
"args": [ false ],
"method": "attack"
}, {
"args": [ true ],
"method": "attack"
}, {
"args": [ false, true ],
"method": "attack"
} ]
}

[sub_resource type="Animation" id=3]

length = 0.96
loop = true
step = 0.12
tracks/0/type = "value"
tracks/0/path = NodePath("Sprite:frame")
tracks/0/interp = 1
tracks/0/loop_wrap = true
tracks/0/imported = false
tracks/0/enabled = true
tracks/0/keys = {
"times": PoolRealArray( 0, 0.12, 0.24, 0.36, 0.48, 0.6, 0.72, 0.84 ),
"transitions": PoolRealArray( 1, 1, 1, 1, 1, 1, 1, 1 ),
"update": 1,
"values": [ 3, 1, 2, 3, 4, 5, 6, 7 ]
}

[sub_resource type="Animation" id=4]

length = 0.5
loop = false
step = 0.1
tracks/0/type = "value"
tracks/0/path = NodePath(".:modulate")
tracks/0/interp = 1
tracks/0/loop_wrap = true
tracks/0/imported = false
tracks/0/enabled = true
tracks/0/keys = {
"times": PoolRealArray( 0, 0.5 ),
"transitions": PoolRealArray( 1, 1 ),
"update": 0,
"values": [ Color( 1, 1, 1, 0 ), Color( 1, 1, 1, 1 ) ]
}

[sub_resource type="RectangleShape2D" id=5]

resource_local_to_scene = true
custom_solver_bias = 0.0
extents = Vector2( 42, 24 )
_sections_unfolded = [ "Resource" ]

[sub_resource type="RectangleShape2D" id=6]

resource_local_to_scene = true
custom_solver_bias = 0.0
extents = Vector2( 42, 24 )
_sections_unfolded = [ "Resource" ]

[node name="HugeSlime" type="KinematicBody2D" index="0"]

input_pickable = false
collision_layer = 2
collision_mask = 4
collision/safe_margin = 0.08
script = ExtResource( 1 )
_sections_unfolded = [ "Collision", "Transform", "Visibility", "Z Index", "collision" ]

[node name="Sprite" type="Sprite" parent="." index="0"]

texture = SubResource( 1 )
vframes = 3
hframes = 5
_sections_unfolded = [ "Animation", "Transform" ]

[node name="AnimationPlayer" type="AnimationPlayer" parent="." index="1"]

root_node = NodePath("..")
autoplay = ""
playback_process_mode = 1
playback_default_blend_time = 0.0
playback_speed = 1.0
anims/Attack = SubResource( 2 )
anims/Bounce = SubResource( 3 )
anims/FadeInSpawn = SubResource( 4 )
next/Attack = "Bounce"
next/FadeInSpawn = "Bounce"
blend_times = [  ]

[node name="CollisionShape2D" type="CollisionShape2D" parent="." index="2"]

position = Vector2( 5, 16 )
shape = SubResource( 5 )
_sections_unfolded = [ "Transform" ]

[node name="TouchDamageArea" type="Area2D" parent="." index="3"]

visible = false
input_pickable = true
gravity_vec = Vector2( 0, 1 )
gravity = 98.0
linear_damp = 0.1
angular_damp = 1.0
collision_layer = 2
audio_bus_override = false
audio_bus_name = "Master"
_sections_unfolded = [ "Collision" ]

[node name="CollisionShape2D2" type="CollisionShape2D" parent="TouchDamageArea" index="0"]

position = Vector2( -11, 16 )
shape = SubResource( 6 )
_sections_unfolded = [ "Transform" ]


