[gd_scene load_steps=3 format=2]

[ext_resource path="res://Entities/Enemies/MobSpawner.gd" type="Script" id=1]
[ext_resource path="res://Entities/Enemies/MobSpawnEmitter.tscn" type="PackedScene" id=2]

[node name="MobSpawner" type="Node2D"]

script = ExtResource( 1 )
_sections_unfolded = [ "Transform" ]

[node name="MobSpawnEmitter" parent="." index="0" instance=ExtResource( 2 )]

z_index = 10


