[gd_scene load_steps=4 format=2]

[sub_resource type="Gradient" id=1]

offsets = PoolRealArray( 0, 1 )
colors = PoolColorArray( 0.00189209, 0.242188, 0, 1, 0, 0.875, 0.136719, 1 )

[sub_resource type="GradientTexture" id=2]

flags = 4
gradient = SubResource( 1 )
width = 2048

[sub_resource type="ParticlesMaterial" id=3]

render_priority = 0
trail_divisor = 1
emission_shape = 1
emission_sphere_radius = 6.0
flag_align_y = false
flag_rotate_y = false
flag_disable_z = true
spread = 90.0
flatness = 0.0
gravity = Vector3( 0, -10, 0 )
initial_velocity = 2.0
initial_velocity_random = 0.2
angular_velocity = 0.0
angular_velocity_random = 0.0
orbit_velocity = 0.2
orbit_velocity_random = 1.0
linear_accel = 0.0
linear_accel_random = 0.0
radial_accel = 0.0
radial_accel_random = 0.0
tangential_accel = 4.0
tangential_accel_random = 1.0
damping = 0.0
damping_random = 0.0
angle = 0.0
angle_random = 0.0
scale = 1.2
scale_random = 0.0
color_ramp = SubResource( 2 )
hue_variation = 0.0
hue_variation_random = 0.0
anim_speed = 0.0
anim_speed_random = 0.0
anim_offset = 0.0
anim_offset_random = 0.0
anim_loop = false
_sections_unfolded = [ "Color" ]

[node name="MobSpawnEmitter" type="Particles2D"]

position = Vector2( 296.562, 348.256 )
scale = Vector2( 2, 2 )
emitting = false
amount = 30
lifetime = 2.0
one_shot = true
preprocess = 0.0
speed_scale = 1.0
explosiveness = 0.3
randomness = 0.5
fixed_fps = 0
fract_delta = true
visibility_rect = Rect2( -100, -100, 200, 200 )
local_coords = true
draw_order = 0
process_material = SubResource( 3 )
texture = null
normal_map = null
h_frames = 1
v_frames = 1
_sections_unfolded = [ "Process Material", "Textures", "Time", "Transform", "Z Index" ]


