[gd_scene load_steps=2 format=2]

[ext_resource path="res://States/MainMenu.gd" type="Script" id=1]

[node name="MainMenu" type="Control" index="0"]

anchor_left = 0.0
anchor_top = 0.0
anchor_right = 0.5
anchor_bottom = 0.5
margin_top = -1.0
margin_right = -440.0
margin_bottom = -281.0
rect_pivot_offset = Vector2( 0, 0 )
rect_clip_content = false
mouse_filter = 0
mouse_default_cursor_shape = 0
size_flags_horizontal = 1
size_flags_vertical = 1
script = ExtResource( 1 )

[node name="Panel" type="Panel" parent="." index="0"]

anchor_left = 0.0
anchor_top = 0.0
anchor_right = 0.0
anchor_bottom = 0.0
margin_left = 340.0
margin_top = 110.0
margin_right = 620.0
margin_bottom = 530.0
rect_pivot_offset = Vector2( 0, 0 )
rect_clip_content = false
mouse_filter = 0
mouse_default_cursor_shape = 0
size_flags_horizontal = 1
size_flags_vertical = 1
_sections_unfolded = [ "Rect" ]

[node name="Button" type="Button" parent="Panel" index="0"]

anchor_left = 0.0
anchor_top = 0.0
anchor_right = 0.0
anchor_bottom = 0.0
margin_left = 60.0
margin_top = 88.0
margin_right = 216.0
margin_bottom = 108.0
rect_pivot_offset = Vector2( 0, 0 )
rect_clip_content = false
focus_mode = 2
mouse_filter = 0
mouse_default_cursor_shape = 0
size_flags_horizontal = 1
size_flags_vertical = 1
toggle_mode = false
enabled_focus_mode = 2
shortcut = null
group = null
text = "Play"
flat = false
align = 1

[connection signal="pressed" from="Panel/Button" to="." method="playGame"]


